Plotting with exuber • exuber
…
With the old functionality you had to make changes one at a time

plot_list1[[1]] <- plot_list1[[1]] + theme_classic()

and then reconstruct the plot with grid.arrange or some other function that arranges all plots into a single grob.

Custom plotting

Custom plotting is also very easy with the augment_join function, that merge the estimation and and critical values results in a ggplot2-friendly way.

joined <- augment_join(estimation, crit_values)
joined
#> # A tibble: 1,920 x 6
#>    index id       name   tstat sig    crit
#>    <dbl> <fct>    <chr>  <dbl> <fct> <dbl>
#>  1    21 sim_psy1 badf  -2.08  90    -0.44
#>  2    22 sim_psy1 badf  -2.31  90    -0.44
#>  3    23 sim_psy1 badf  -2.39  90    -0.44
#>  4    24 sim_psy1 badf  -2.26  90    -0.44
#>  5    25 sim_psy1 badf  -2.08  90    -0.44
#>  6    26 sim_psy1 badf  -1.79  90    -0.44
#>  7    27 sim_psy1 badf  -1.00  90    -0.44
#>  8    28 sim_psy1 badf  -1.34  90    -0.44
#>  9    29 sim_psy1 badf  -1.28  90    -0.44
#> 10    30 sim_psy1 badf  -0.800 90    -0.44
#> # ... with 1,910 more rows
…
