Plotting with exuber • exuber
…
Custom plotting

joined <- augment_join(tstats, cv)
joined 
#> # A tibble: 1,920 x 6
#>    index id       name   tstat sig     crit
#>    <dbl> <chr>    <chr>  <dbl> <fct>  <dbl>
#>  1    21 sim_blan badf  -0.974 0.9   0.0203
#>  2    21 sim_blan badf  -0.974 0.95  0.0203
#>  3    21 sim_blan badf  -0.974 0.99  0.0203
#>  4    22 sim_blan badf  -2.20  0.9   0.0204
#>  5    22 sim_blan badf  -2.20  0.95  0.0204
#>  6    22 sim_blan badf  -2.20  0.99  0.0204
#>  7    23 sim_blan badf  -2.18  0.9   0.0205
#>  8    23 sim_blan badf  -2.18  0.95  0.0205
#>  9    23 sim_blan badf  -2.18  0.99  0.0205
#> 10    24 sim_blan badf  -2.25  0.9   0.0205
#> # ... with 1,910 more rows
…
