Plotting with exuber • exuber
…
Custom plotting

Custom plotting is also very easy with the augment_join(), that merge the output of the estimation and and critical values in a ggplot2-friendly way.

joined <- augment_join(estimation, crit_values)
joined
#> # A tibble: 1,926 × 8
#>      key index id        data stat   tstat sig    crit
#>    <int> <dbl> <fct>    <dbl> <fct>  <dbl> <fct> <dbl>
#>  1    21    21 sim_psy1 119.  badf  -2.08  90    -0.44
#>  2    22    22 sim_psy1 112.  badf  -2.31  90    -0.44
#>  3    23    23 sim_psy1 111.  badf  -2.39  90    -0.44
#>  4    24    24 sim_psy1 104.  badf  -2.26  90    -0.44
#>  5    25    25 sim_psy1  98.6 badf  -2.08  90    -0.44
#>  6    26    26 sim_psy1  94.3 badf  -1.79  90    -0.44
#>  7    27    27 sim_psy1  82.9 badf  -1.00  90    -0.44
#>  8    28    28 sim_psy1  88.6 badf  -1.34  90    -0.44
#>  9    29    29 sim_psy1  89.6 badf  -1.28  90    -0.44
#> 10    30    30 sim_psy1  81.9 badf  -0.800 90    -0.44
#> # … with 1,916 more rows
…
