Plotting and tidying radf objects — autoplot.radf • exuber
…
# For custom plotting with ggplot2
dta %>%
  radf() %>%
  fortify()
#> # A tibble: 81 x 4
#>    index `Series 1` `Series 2`     cv
#>    <dbl>      <dbl>      <dbl>  <dbl>
#>  1    20      -1.19  -2.14     0.0254
#>  2    21      -1.27  -1.61     0.104 
#>  3    22      -1.14  -1.22     0.236 
#>  4    23      -1.34  -0.580    0.258 
#>  5    24      -1.33  -0.000996 0.258 
#>  6    25      -1.34   0.764    0.283 
#>  7    26      -1.38   1.37     0.283 
#>  8    27      -1.42   2.39     0.298 
#>  9    28      -1.30   2.68     0.378 
#> 10    29      -1.54   3.86     0.378 
#> # ... with 71 more rows
…
