Recursive Augmented Dickey-Fuller Test — radf • exuber
…
    References

    Phillips, P. C. B., Wu, Y., & Yu, J. (2011). Explosive Behavior
in The 1990s Nasdaq: When Did Exuberance Escalate Asset Values? International
Economic Review, 52(1), 201-226.

Phillips, P. C. B., Shi, S., & Yu, J. (2015). Testing for
Multiple Bubbles: Historical Episodes of Exuberance and Collapse in the
S&P 500. International Economic Review, 56(4), 1043-1078.

    Examples

# We will use simulated data that are stored as data with the name `sim_data`
sim_data
#> # A tibble: 100 x 5
#>    psy1  psy2  evans div   blan  
#>    <sim> <sim> <sim> <sim> <sim> 
#>  1 100   100   0.5   68.4  0.1   
#>  2 90.3  102   0.563 66    0.0408
#>  3 93.4  110   0.583 78.9  0.121 
#>  4 92.9  116   0.575 75.6  0.0195
#>  5 106   127   0.545 74.8  0.0216
#>  6 102   114   0.577 77.7  0.0117
#>  7 109   120   0.658 80.8  0.0265
#>  8 105   130   0.7   91.4  0.0238
#>  9 112   128   0.684 87.4  0.0332
#> 10 124   131   0.735 72.2  0.0342
#> # ... with 90 more rows
…
# We would also use data that contain a Date column
sim_data_wdate
#> # A tibble: 100 x 6
#>    psy1  psy2  evans div   blan   date      
#>    <sim> <sim> <sim> <sim> <sim>  <date>    
#>  1 100   100   0.5   68.4  0.1    2000-01-01
#>  2 90.3  102   0.563 66    0.0408 2000-02-01
#>  3 93.4  110   0.583 78.9  0.121  2000-03-01
#>  4 92.9  116   0.575 75.6  0.0195 2000-04-01
#>  5 106   127   0.545 74.8  0.0216 2000-05-01
#>  6 102   114   0.577 77.7  0.0117 2000-06-01
#>  7 109   120   0.658 80.8  0.0265 2000-07-01
#>  8 105   130   0.7   91.4  0.0238 2000-08-01
#>  9 112   128   0.684 87.4  0.0332 2000-09-01
#> 10 124   131   0.735 72.2  0.0342 2000-10-01
#> # ... with 90 more rows
…
